# Blender v2.92.0 OBJ File: 'X.blend'
# www.blender.org
mtllib X.mtl
o Plane
v -1.000000 0.000000 1.000000
v 1.000000 0.000000 1.000000
v -1.000000 0.000000 -1.000000
v 1.000000 0.000000 -1.000000
v -0.998741 0.000000 1.000000
v -0.874696 0.000000 1.000000
v 0.843362 0.000000 1.000000
v -1.000000 0.000000 -0.996584
v -1.000000 0.000000 -0.887465
v -1.000000 0.000000 0.814316
v 0.883015 0.000000 -1.000000
v -0.872439 0.000000 -1.000000
v 1.000000 0.000000 0.867953
v 1.000000 0.000000 -0.881458
v -0.139167 0.000000 0.012476
v -0.027229 0.000000 -0.112497
v 0.094077 0.000000 -0.000428
v 0.019453 0.000000 0.134424
v 0.843362 0.122691 1.000000
v 1.000000 0.122691 1.000000
v 1.000000 0.122691 -0.881458
v 1.000000 0.122691 -1.000000
v -0.998741 0.122691 1.000000
v -0.874696 0.122691 1.000000
v -1.000000 0.122691 -0.996584
v -1.000000 0.122691 -0.887465
v 0.883015 0.122691 -1.000000
v 1.000000 0.122691 0.867953
v -1.000000 0.122691 0.814316
v -0.139167 0.122691 0.012476
v -0.872439 0.122691 -1.000000
v -0.027229 0.122691 -0.112497
v 0.094077 0.122691 -0.000428
v 0.019453 0.122691 0.134424
v 0.843362 0.000379 1.000000
v 1.000000 0.000379 1.000000
v 1.000000 0.000379 -0.881458
v 1.000000 0.000379 -1.000000
v -0.998741 0.000379 1.000000
v -0.874696 0.000379 1.000000
v -1.000000 0.000379 -0.996584
v -1.000000 0.000379 -0.887465
v 0.883015 0.000379 -1.000000
v 1.000000 0.000379 0.867953
v -1.000000 0.000379 0.814316
v -0.139167 0.000379 0.012476
v -0.872439 0.000379 -1.000000
v -0.027229 0.000379 -0.112497
v 0.094077 0.000379 -0.000428
v 0.019453 0.000379 0.134424
vt 0.000000 0.000000
vt 0.000630 0.000000
vt 0.000000 0.092842
vt 0.000000 0.000000
vt 0.000000 0.000000
vt 0.000000 0.000000
vt 0.000000 0.998292
vt 0.063781 1.000000
vt 0.000000 1.000000
vt 0.547039 0.500214
vt 0.486386 0.556249
vt 0.430417 0.493762
vt 0.000000 0.000000
vt 0.000000 0.000000
vt 0.000000 0.000000
vt 0.000000 0.000000
vt 0.000000 0.000000
vt 0.000000 0.000000
vt 0.000000 0.000000
vt 0.000000 0.000000
vt 0.000000 0.000000
vt 0.063781 1.000000
vt 0.000000 0.000000
vt 0.000000 0.000000
vt 0.000000 0.000000
vt 0.000000 0.000000
vt 0.000000 0.000000
vt 0.000000 0.000000
vt 0.000000 0.000000
vt 0.000000 0.000000
vt 0.000000 0.000000
vt 0.000000 0.000000
vt 0.000000 0.000000
vt 0.000000 0.000000
vt 0.000000 0.000000
vt 0.000000 0.000000
vt 0.000000 0.000000
vt 0.000000 0.000000
vt 0.000000 0.000000
vt 0.000000 0.000000
vt 0.000000 0.092842
vt 0.547039 0.500214
vt 0.486386 0.556249
vt 0.430417 0.493762
vt 0.509726 0.432788
vt 0.000630 0.000000
vt 0.062652 0.000000
vt 0.921681 0.000000
vt 1.000000 0.066024
vt 1.000000 0.000000
vt 1.000000 0.940729
vt 0.941508 1.000000
vt 1.000000 1.000000
vt 0.000000 0.943732
vt 0.000000 0.998292
vt 0.000000 0.000000
vt 0.000000 0.000000
vt 0.000000 0.092842
vt 0.509726 0.432788
vt 0.000630 0.000000
vt 0.062652 0.000000
vt 0.921681 0.000000
vt 1.000000 0.066024
vt 1.000000 0.000000
vt 1.000000 0.940729
vt 0.941508 1.000000
vt 1.000000 1.000000
vt 0.063781 1.000000
vt 0.000000 0.943732
vt 0.000000 0.998292
vn 0.0000 1.0000 0.0000
vn -0.7243 0.0000 0.6895
vn -0.6816 0.0000 -0.7317
vn 0.6955 0.0000 0.7185
vn -0.7226 0.0000 0.6912
vn 0.0000 0.0000 1.0000
vn -0.0268 0.0000 -0.9996
vn 0.7242 0.0000 -0.6896
vn -1.0000 0.0000 0.0000
vn -0.6981 0.0000 -0.7160
vn 0.0000 0.0000 -1.0000
vn 0.6972 0.0000 0.7169
vn 1.0000 0.0000 0.0000
vn 0.6920 0.0000 -0.7219
vn -1.0000 0.0000 0.0068
usemtl None
s off
f 1/1/1 5/2/1 10/3/1
f 7/4/2 34/5/2 18/6/2
f 8/7/1 12/8/1 3/9/1
f 33/10/1 32/11/1 30/12/1
f 10/13/3 30/14/3 15/15/3
f 18/6/4 24/16/4 6/17/4
f 15/15/5 26/18/5 9/19/5
f 6/17/6 23/20/6 5/21/6
f 8/7/7 31/22/7 12/8/7
f 12/23/8 32/24/8 16/25/8
f 9/19/9 25/26/9 8/27/9
f 16/25/10 27/28/10 11/29/10
f 11/29/11 22/30/11 4/31/11
f 2/32/6 19/33/6 7/4/6
f 14/34/12 33/35/12 17/36/12
f 13/37/13 20/38/13 2/32/13
f 4/31/13 21/39/13 14/34/13
f 17/36/14 28/40/14 13/37/14
f 5/2/15 29/41/15 10/3/15
f 49/42/1 48/43/1 46/44/1
f 7/4/2 19/33/2 34/5/2
f 30/12/1 29/41/1 34/45/1
f 29/41/1 23/46/1 24/47/1
f 24/47/1 34/45/1 29/41/1
f 34/45/1 19/48/1 28/49/1
f 19/48/1 20/50/1 28/49/1
f 28/49/1 33/10/1 34/45/1
f 33/10/1 21/51/1 27/52/1
f 21/51/1 22/53/1 27/52/1
f 27/52/1 32/11/1 33/10/1
f 32/11/1 31/22/1 26/54/1
f 31/22/1 25/55/1 26/54/1
f 26/54/1 30/12/1 32/11/1
f 30/12/1 34/45/1 33/10/1
f 10/13/3 29/56/3 30/14/3
f 18/6/4 34/5/4 24/16/4
f 15/15/5 30/14/5 26/18/5
f 6/17/6 24/16/6 23/20/6
f 8/7/7 25/55/7 31/22/7
f 12/23/8 31/57/8 32/24/8
f 9/19/9 26/18/9 25/26/9
f 16/25/10 32/24/10 27/28/10
f 11/29/11 27/28/11 22/30/11
f 2/32/6 20/38/6 19/33/6
f 14/34/12 21/39/12 33/35/12
f 13/37/13 28/40/13 20/38/13
f 4/31/13 22/30/13 21/39/13
f 17/36/14 33/35/14 28/40/14
f 5/2/15 23/46/15 29/41/15
f 46/44/1 45/58/1 50/59/1
f 45/58/1 39/60/1 40/61/1
f 40/61/1 50/59/1 45/58/1
f 50/59/1 35/62/1 44/63/1
f 35/62/1 36/64/1 44/63/1
f 44/63/1 49/42/1 50/59/1
f 49/42/1 37/65/1 43/66/1
f 37/65/1 38/67/1 43/66/1
f 43/66/1 48/43/1 49/42/1
f 48/43/1 47/68/1 42/69/1
f 47/68/1 41/70/1 42/69/1
f 42/69/1 46/44/1 48/43/1
f 46/44/1 50/59/1 49/42/1
